C:\Users\Danilo Trombino\Documents\Eclipse\cfe_cedus\identity-manager\src\main\java\it\eng\rspa\identity\manager\model\Credentials.java
C:\Users\Danilo Trombino\Documents\Eclipse\cfe_cedus\identity-manager\src\main\java\it\eng\rspa\identity\manager\interfaces\UserOrganization.java
C:\Users\Danilo Trombino\Documents\Eclipse\cfe_cedus\identity-manager\src\main\java\it\eng\rspa\identity\manager\model\Permission.java
C:\Users\Danilo Trombino\Documents\Eclipse\cfe_cedus\identity-manager\src\main\java\it\eng\rspa\identity\manager\interfaces\OAuth2Provider.java
C:\Users\Danilo Trombino\Documents\Eclipse\cfe_cedus\identity-manager\src\main\java\it\eng\rspa\identity\manager\interfaces\RolePermission.java
C:\Users\Danilo Trombino\Documents\Eclipse\cfe_cedus\identity-manager\src\main\java\it\eng\rspa\identity\manager\model\Role.java
C:\Users\Danilo Trombino\Documents\Eclipse\cfe_cedus\identity-manager\src\main\java\it\eng\rspa\identity\manager\interfaces\AuthenticatedUser.java
C:\Users\Danilo Trombino\Documents\Eclipse\cfe_cedus\identity-manager\src\main\java\it\eng\rspa\identity\manager\interfaces\RoleManager.java
C:\Users\Danilo Trombino\Documents\Eclipse\cfe_cedus\identity-manager\src\main\java\it\eng\rspa\identity\manager\interfaces\UserRole.java
C:\Users\Danilo Trombino\Documents\Eclipse\cfe_cedus\identity-manager\src\main\java\it\eng\rspa\identity\manager\interfaces\AuthToken.java
C:\Users\Danilo Trombino\Documents\Eclipse\cfe_cedus\identity-manager\src\main\java\it\eng\rspa\identity\manager\model\Token.java
C:\Users\Danilo Trombino\Documents\Eclipse\cfe_cedus\identity-manager\src\main\java\it\eng\rspa\identity\manager\model\User.java
C:\Users\Danilo Trombino\Documents\Eclipse\cfe_cedus\identity-manager\src\main\java\it\eng\rspa\identity\manager\model\Organization.java
